{ 
	"errCode" : -1
	"queried" : 
	{
		"word" : "apple",
		"cos"  : 0.2,
		"x"    : 0.5,
		"y"    : 0.5
	}
	"nodes" : 
	[
		{ "word":"i", "cos":0.2, "x":0.5, "y":0.5 },
		{ "word":"he", "cos":0.2, "x":0.5, "y":0.5 },
		...
	]
}